2  
1.0

2 4
0 0
0 1
1 0
1 1

2 S W  
0

14

7 0 1 2 3 4 5 6
7 7 8 9 10 11 12 13

1 0.1 0.1 0.1 0.1 0.2 0.2 0.2
0 0.1 0.1 0.1 0.1 0.2 0.2 0.2

4

S S
0 0 1 0
0 0 1 0
0 0 1 0
0 0 1 0

S W
0 0 1 0
0 0 0 1
0 0 1 0
0 0 0 1

W S
0 0 1 0
0 0 1 0
0 0 1 0
0 0 1 0

W W
0 0 1 0
0 0 0 1
0 0 1 0
0 0 0 1

0 0 0 0
0 0 1 0
0 1 0 0
0 1 1 0

1 1 0 0
1 1 0 0
1 1 0 0
1 1 0 0

0 0 1 1
0 0 1 1
0 0 1 1
0 0 1 1

-1 -1 0 0
-1 -1 0 0
1 1 0 0
-1 1 0 0

0 0 1 1
0 0 1 1
0 0 -1 -1
0 0 1 -1

-2 -2 0 0
-2 -2 0 0
2 2 0 0
-2 2 0 0

0 0 2 2
0 0 2 2
0 0 -2 -2
0 0 2 -2

0 1 0 0
0 0 1 0
0 1 0 0
0 0 1 0

1 0 1 0
1 0 1 0
1 0 1 0
1 0 1 0

0 1 0 1
0 1 0 1
0 1 0 1
0 1 0 1

-1 0 -1 0
1 0 1 0
-1 0 -1 0
-1 0 1 0

0 1 0 1
0 -1 0 -1
0 1 0 1
0 1 0 -1

-2 0 -2 0
2 0 2 0
-2 0 -2 0
-2 0 2 0

0 2 0 2
0 -2 0 -2
0 2 0 2
0 2 0 -2

